Likelihood Ratio Tests
…
# Expand to match collected data
dat <- sumdat %>%
  select(group, smolt, adult) %>%
  mutate(
    returned = map2(
      adult, smolt, ~ tibble(returned = c(rep(1, .x), rep(0, .y - .x)))
    )
  ) %>%
  unnest(returned) %>%
  select(-smolt, -adult)
dat

# A tibble: 60,000 × 2
   group  returned
   <chr>     <dbl>
 1 spring        1
 2 spring        1
 3 spring        1
 4 spring        1
 5 spring        1
 6 spring        1
 7 spring        1
 8 spring        1
 9 spring        1
10 spring        1
# ℹ 59,990 more rows
…
